*** Darwin 15x11 ***
Turn = 0.
  01234567890
0 ...........
1 ...........
2 ...........
3 ....f......
4 ...........
5 ...r.......
6 ...........
7 ...........
8 ...........
9 ......f....
0 ......t....
1 ...........
2 ..h......t.
3 ..f........
4 .........t.

Turn = 2.
  01234567890
0 ...........
1 ...........
2 ...........
3 ....f......
4 ...........
5 ...........
6 ...........
7 ...r.......
8 ...........
9 ......t....
0 ..h...t....
1 ...........
2 .........t.
3 ..f........
4 .........t.

Turn = 4.
  01234567890
0 ...........
1 ...........
2 ...........
3 ....f......
4 ...........
5 ...........
6 ...........
7 ...........
8 ..h........
9 ...r..t....
0 ......t....
1 ...........
2 .........t.
3 ..f........
4 .........t.

*** Darwin 11x10 ***
Turn = 0.
  0123456789
0 ..........
1 ..........
2 ..........
3 ...t..th..
4 ..........
5 .........f
6 ..........
7 ..........
8 ......hh..
9 .t........
0 ...t......

Turn = 3.
  0123456789
0 .......h..
1 ..........
2 ..........
3 ...t..t...
4 ..........
5 .........f
6 ..........
7 ..........
8 ...h......
9 .t........
0 ...t...h..

Turn = 6.
  0123456789
0 .......h..
1 ..........
2 ..........
3 ...t..t...
4 ..........
5 .........f
6 ..........
7 ..........
8 h.........
9 .t........
0 ...t...h..

*** Darwin 14x15 ***
Turn = 0.
  012345678901234
0 ...............
1 ...............
2 .....t...h.....
3 ...............
4 ....t..........
5 ...............
6 ...t...........
7 ..h............
8 ......h........
9 ...............
0 ...............
1 ...............
2 .f........t....
3 ...............

Turn = 1.
  012345678901234
0 ...............
1 ...............
2 .....t....h....
3 ...............
4 ....t..........
5 ...............
6 ...t...........
7 ...h..h........
8 ...............
9 ...............
0 ...............
1 ...............
2 .f........t....
3 ...............

Turn = 2.
  012345678901234
0 ...............
1 ...............
2 .....t.....h...
3 ...............
4 ....t..........
5 ...............
6 ...t..h........
7 ....h..........
8 ...............
9 ...............
0 ...............
1 ...............
2 .f........t....
3 ...............

Turn = 3.
  012345678901234
0 ...............
1 ...............
2 .....t......h..
3 ...............
4 ....t..........
5 ......h........
6 ...t...........
7 .....h.........
8 ...............
9 ...............
0 ...............
1 ...............
2 .f........t....
3 ...............

Turn = 4.
  012345678901234
0 ...............
1 ...............
2 .....t.......h.
3 ...............
4 ....t.h........
5 ...............
6 ...t...........
7 ......h........
8 ...............
9 ...............
0 ...............
1 ...............
2 .f........t....
3 ...............

Turn = 5.
  012345678901234
0 ...............
1 ...............
2 .....t........h
3 ......h........
4 ....t..........
5 ...............
6 ...t...........
7 .......h.......
8 ...............
9 ...............
0 ...............
1 ...............
2 .f........t....
3 ...............

Turn = 6.
  012345678901234
0 ...............
1 ...............
2 .....th.......h
3 ...............
4 ....t..........
5 ...............
6 ...t...........
7 ........h......
8 ...............
9 ...............
0 ...............
1 ...............
2 .f........t....
3 ...............

*** Darwin 12x13 ***
Turn = 0.
  0123456789012
0 .............
1 .............
2 ......r......
3 .......h....h
4 .........r...
5 .............
6 .............
7 .............
8 .............
9 .......r.h...
0 ....t.h......
1 .............

Turn = 3.
  0123456789012
0 .............
1 .........r...
2 .............
3 .....h.......
4 .............
5 ......r......
6 ............h
7 .............
8 .............
9 ..........r..
0 ....t........
1 ......h..h...

*** Darwin 12x11 ***
Turn = 0.
  01234567890
0 ...........
1 ..f...h....
2 ...........
3 ...........
4 ...........
5 .........t.
6 ...........
7 ...........
8 ...........
9 ...........
0 .....f...t.
1 ....f.....r

Turn = 1.
  01234567890
0 ...........
1 ..f..h.....
2 ...........
3 ...........
4 ...........
5 .........t.
6 ...........
7 ...........
8 ...........
9 ...........
0 .....f...t.
1 ....f....r.

Turn = 2.
  01234567890
0 ...........
1 ..f.h......
2 ...........
3 ...........
4 ...........
5 .........t.
6 ...........
7 ...........
8 ...........
9 ...........
0 .....f...t.
1 ....f....t.

Turn = 3.
  01234567890
0 ...........
1 ..fh.......
2 ...........
3 ...........
4 ...........
5 .........t.
6 ...........
7 ...........
8 ...........
9 ...........
0 .....f...t.
1 ....f....t.

Turn = 4.
  01234567890
0 ...........
1 ..fh.......
2 ...........
3 ...........
4 ...........
5 .........t.
6 ...........
7 ...........
8 ...........
9 ...........
0 .....f...t.
1 ....f....t.

Turn = 5.
  01234567890
0 ...........
1 ..fh.......
2 ...........
3 ...........
4 ...........
5 .........t.
6 ...........
7 ...........
8 ...........
9 ...........
0 .....f...t.
1 ....f....t.

*** Darwin 14x13 ***
Turn = 0.
  0123456789012
0 .............
1 .............
2 ....h........
3 ......r......
4 ...t......r..
5 .............
6 ......h......
7 .............
8 .......h.....
9 .............
0 .............
1 ....t........
2 .............
3 .............

Turn = 3.
  0123456789012
0 .............
1 ..........r..
2 .......h.....
3 .........r...
4 ...t.........
5 .......h.....
6 .........h...
7 .............
8 .............
9 .............
0 .............
1 ....t........
2 .............
3 .............

Turn = 6.
  0123456789012
0 ...........r.
1 .............
2 .......h..h..
3 ............r
4 ...t.........
5 .............
6 ............h
7 .............
8 .............
9 .............
0 .............
1 ....t........
2 .............
3 .............

*** Darwin 14x10 ***
Turn = 0.
  0123456789
0 ..........
1 .......f..
2 ..........
3 ..........
4 .........t
5 ..........
6 ..........
7 ........f.
8 ..........
9 ....h.....
0 ......tt..
1 ..........
2 .......t..
3 ..r.......

Turn = 2.
  0123456789
0 ..........
1 .......f..
2 ..........
3 ..........
4 .........t
5 ..........
6 ..........
7 ........f.
8 ..........
9 ..........
0 ......tt..
1 ....h.....
2 .......t..
3 ....r.....

Turn = 4.
  0123456789
0 ..........
1 .......f..
2 ..........
3 ..........
4 .........t
5 ..........
6 ..........
7 ........f.
8 ..........
9 ..........
0 ......tt..
1 ..........
2 .......t..
3 ....h.r...

*** Darwin 11x14 ***
Turn = 0.
  01234567890123
0 ..............
1 .....r........
2 ..............
3 ..............
4 .t............
5 .h............
6 .t.......t....
7 ..............
8 .........t....
9 ..r...........
0 ..........f...

Turn = 2.
  01234567890123
0 ..............
1 ...r..........
2 ..............
3 ..............
4 .t............
5 ...h..........
6 .t.......t....
7 ..............
8 .........t....
9 r.............
0 ..........f...

Turn = 4.
  01234567890123
0 ..............
1 .r............
2 ..............
3 ..............
4 .t............
5 .....h........
6 .t.......t....
7 ..............
8 r........t....
9 ..............
0 ..........f...

*** Darwin 12x12 ***
Turn = 0.
  012345678901
0 ............
1 ...........t
2 ............
3 ............
4 ..r.........
5 ...r........
6 .....f......
7 ............
8 ............
9 ............
0 ...t.......t
1 .r........f.

Turn = 1.
  012345678901
0 ............
1 ...........t
2 ............
3 ............
4 ...r........
5 ..r.........
6 .....f......
7 ............
8 ............
9 ............
0 ...t.......t
1 r.........f.

Turn = 2.
  012345678901
0 ............
1 ...........t
2 ............
3 ...r........
4 ............
5 ............
6 ..r..f......
7 ............
8 ............
9 ............
0 ...t.......t
1 r.........f.

Turn = 3.
  012345678901
0 ............
1 ...........t
2 ...r........
3 ............
4 ............
5 ............
6 .....f......
7 ..r.........
8 ............
9 ............
0 r..t.......t
1 ..........f.

Turn = 4.
  012345678901
0 ............
1 ...r.......t
2 ............
3 ............
4 ............
5 ............
6 .....f......
7 ............
8 ..r.........
9 r...........
0 ...t.......t
1 ..........f.

Turn = 5.
  012345678901
0 ...r........
1 ...........t
2 ............
3 ............
4 ............
5 ............
6 .....f......
7 ............
8 r...........
9 ..r.........
0 ...t.......t
1 ..........f.

Turn = 6.
  012345678901
0 ...r........
1 ...........t
2 ............
3 ............
4 ............
5 ............
6 .....f......
7 r...........
8 ............
9 ............
0 ..rt.......t
1 ..........f.

*** Darwin 13x15 ***
Turn = 0.
  012345678901234
0 ...............
1 ..............h
2 ...t...........
3 ...............
4 ...............
5 ...f...........
6 ...............
7 ...............
8 ......r........
9 .f........f....
0 ...............
1 ...............
2 ......r....h...

Turn = 2.
  012345678901234
0 ...............
1 ...............
2 ...t...........
3 ..............h
4 ...............
5 ...f...........
6 ...............
7 ...............
8 ........r......
9 .f........f....
0 ...............
1 ...............
2 .....r...h.....

Turn = 4.
  012345678901234
0 ...............
1 ...............
2 ...t...........
3 ...............
4 ...............
5 ...f..........h
6 ...............
7 ...............
8 ..........r....
9 .f........f....
0 ...............
1 ...............
2 ...r...h.......

*** Darwin 12x15 ***
Turn = 0.
  012345678901234
0 ...............
1 ........r......
2 ...............
3 ...............
4 ..............t
5 ...........r.h.
6 ...............
7 ..f............
8 ...r.......f...
9 ...............
0 ...............
1 .............t.

Turn = 2.
  012345678901234
0 ...............
1 ..........r....
2 ...............
3 ...............
4 ..............t
5 ..............h
6 ...............
7 ..f........r...
8 ...........f...
9 ...............
0 ...r...........
1 .............t.

Turn = 4.
  012345678901234
0 ...............
1 ............r..
2 ...............
3 ...............
4 ..............t
5 ..............t
6 ...............
7 ..f............
8 .........r.r...
9 ...............
0 ...............
1 ...r.........t.

Turn = 6.
  012345678901234
0 ...............
1 ..............r
2 ...............
3 ...............
4 ..............t
5 ..............t
6 ...............
7 ..f............
8 .......r.......
9 ...............
0 ...........r...
1 .r...........t.

*** Darwin 10x11 ***
Turn = 0.
  01234567890
0 ...........
1 .h.........
2 ..r.r......
3 ..r........
4 ....t......
5 ...........
6 ......r....
7 ......f....
8 .......h...
9 ...........

Turn = 3.
  01234567890
0 ..r........
1 h..........
2 .r.........
3 r..........
4 ....t......
5 ...........
6 ...........
7 ...........
8 ......r....
9 ......rh...

*** Darwin 12x10 ***
Turn = 0.
  0123456789
0 ..........
1 .......r..
2 ..........
3 ..........
4 ..........
5 ..........
6 .t........
7 ..........
8 ......t...
9 ..........
0 .t.....t..
1 .....ft...

Turn = 3.
  0123456789
0 ..........
1 ....r.....
2 ..........
3 ..........
4 ..........
5 ..........
6 .t........
7 ..........
8 ......t...
9 ..........
0 .t.....t..
1 .....tt...

Turn = 6.
  0123456789
0 ..........
1 .r........
2 ..........
3 ..........
4 ..........
5 ..........
6 .t........
7 ..........
8 ......t...
9 ..........
0 .t.....t..
1 .....tt...

*** Darwin 11x14 ***
Turn = 0.
  01234567890123
0 ..............
1 ..............
2 ............h.
3 ..t.......t...
4 ..............
5 ..............
6 ..............
7 ..............
8 .f............
9 ..t....t......
0 ...hf.........

Turn = 1.
  01234567890123
0 ..............
1 ..............
2 ...........h..
3 ..t.......t...
4 ..............
5 ..............
6 ..............
7 ..............
8 .f............
9 ..t....t......
0 ..h.f.........

Turn = 2.
  01234567890123
0 ..............
1 ..............
2 ..........t...
3 ..t.......t...
4 ..............
5 ..............
6 ..............
7 ..............
8 .f............
9 ..t....t......
0 ..t.f.........

Turn = 3.
  01234567890123
0 ..............
1 ..............
2 ..........t...
3 ..t.......t...
4 ..............
5 ..............
6 ..............
7 ..............
8 .f............
9 ..t....t......
0 ..t.f.........

Turn = 4.
  01234567890123
0 ..............
1 ..............
2 ..........t...
3 ..t.......t...
4 ..............
5 ..............
6 ..............
7 ..............
8 .f............
9 ..t....t......
0 ..t.f.........

Turn = 5.
  01234567890123
0 ..............
1 ..............
2 ..........t...
3 ..t.......t...
4 ..............
5 ..............
6 ..............
7 ..............
8 .f............
9 ..t....t......
0 ..t.f.........

*** Darwin 10x12 ***
Turn = 0.
  012345678901
0 ............
1 ..h......h..
2 .h..........
3 .......r...t
4 .r...h......
5 ........t...
6 ............
7 ............
8 ............
9 ............

Turn = 1.
  012345678901
0 ............
1 ..........h.
2 .hh....r....
3 .....h.....t
4 r...........
5 ........t...
6 ............
7 ............
8 ............
9 ............

Turn = 2.
  012345678901
0 ............
1 .......r...h
2 .h...h......
3 ..h........t
4 r...........
5 ........t...
6 ............
7 ............
8 ............
9 ............

Turn = 3.
  012345678901
0 .......r....
1 .....h.....h
2 ..h.........
3 r..........t
4 ..h.........
5 ........t...
6 ............
7 ............
8 ............
9 ............

Turn = 4.
  012345678901
0 .....h.r....
1 ...........h
2 r..h........
3 ...........t
4 ............
5 ..h.....t...
6 ............
7 ............
8 ............
9 ............

Turn = 5.
  012345678901
0 .....hr.....
1 r..........h
2 ....h.......
3 ...........t
4 ............
5 ........t...
6 ..h.........
7 ............
8 ............
9 ............

Turn = 6.
  012345678901
0 r....rr.....
1 ...........h
2 .....h......
3 ...........t
4 ............
5 ........t...
6 ............
7 ..h.........
8 ............
9 ............

Turn = 7.
  012345678901
0 r....rr.....
1 ...........h
2 ......h.....
3 ...........t
4 ............
5 ........t...
6 ............
7 ............
8 ..h.........
9 ............
